IP	CPU	GPU	RAM	RAMSPEED	OS	ARCH	
139.91.70.104	Intel(R) Core(TM) i5-4200U CPU @ 1.60GHz  	NVIDIA GeForce GT 740M       Intel(R) HD Graphics Family  	6144MiB	1600MHz	Microsoft Windows 8.1  	64-bit
139.91.70.46	Intel(R)Core(TM)i7-4770CPU@3.40GHz	virtual	7927MiB	nullMHz	LinuxMint17.1Rebecca	64-bit
46.176.81.250	Intel(R) Core(TM) i5-3550 CPU @ 3.30GHz  	NVIDIA GeForce GTX 760  	8192MiB	1600MHz	Microsoft Windows 8.1 Pro  	64-bit
46.176.81.250	Intel(R) Core(TM) i5-3550 CPU @ 3.30GHz	        GK104 [GeForce GTX 760]	7946MiB	nullMHz	Ubuntu14.04.2LTS	64-bit
139.91.70.46	Intel(R) Core(TM) i7-4770 CPU @ 3.40GHz	        Caicos XTX [Radeon HD 8490 / R5 235X OEM]	7927MiB	nullMHz	LinuxMint17.1Rebecca	64-bit
139.91.70.45	Intel(R) Core(TM) i7-4870HQ CPU @ 2.50GHz	       Intel Iris Pro        NVIDIA GeForce GT 750M 	16384MiB	1600MHz	OSX10.10.4(14E46)	i386
139.91.70.115	Intel(R) Core(TM) i5-4260U CPU @ 1.40GHz	       Intel HD Graphics 5000 	8192MiB	1600MHz	OSX10.10.4(14E46)	64-bit
139.91.70.76	Intel(R) Core(TM) i7-4770 CPU @ 3.40GHz	        Xeon E3-1200 v3/4th Gen Core Processor Integrated Graphics Controller	15GiB	nullMHz	Ubuntu14.04.2LTS	64-bit
95.25.11.226	Intel(R) Core(TM)2 Duo CPU     T7700  @ 2.40GHz  	Standard VGA Graphics Adapter  	1024MiB		Microsoft Windows 7 Ultimate  	32-bit
95.25.11.226	Intel(R) Core(TM)2 Duo CPU     T7700  @ 2.40GHz  	Standard VGA Graphics Adapter  	1024MiB		Microsoft Windows 7 Ultimate  	64-bit
95.25.218.11	Intel(R) Core(TM)2 Duo CPU     T7700  @ 2.40GHz  	Standard VGA Graphics Adapter  	1024MiB		Microsoft Windows 7 Ultimate  	32-bit
139.91.70.58	Intel(R) Core(TM)2 CPU          6400  @ 2.13GHz	        RV516 [Radeon X1300/X1550 Series]         RV516 [Radeon X1300/X1550 Series] (Secondary)	1998MiB	nullMHz	Ubuntu14.04.3LTS	64-bit
139.91.70.72	Intel(R) Core(TM) i7-4790 CPU @ 3.60GHz	        Xeon E3-1200 v3/4th Gen Core Processor Integrated Graphics Controller	64KiB256KiB1MiB8MiB8GiB4GiB4GiB	nullMHz	Ubuntu14.04.3LTS	64-bit
139.91.62.25	Intel(R) Core(TM) i7-4510U CPU @ 2.00GHz	        Haswell-ULT Integrated Graphics Controller	3849MiB	nullMHz	Ubuntu14.04.3LTS	64-bit
139.91.70.115	Intel(R) Core(TM) i5-4260U CPU @ 1.40GHz	       Intel HD Graphics 5000 	8192MiB	1600MHz	OSX10.10.5(14F27)	64-bit
139.91.70.46	Intel(R) Core(TM) i7-4770 CPU @ 3.40GHz	        Caicos XTX [Radeon HD 8490 / R5 235X OEM]	7927MiB	nullMHz	LinuxMint17.1Rebecca	64-bit
139.91.70.60	Intel(R) Core(TM) i5-4200U CPU @ 1.60GHz	        Haswell-ULT Integrated Graphics Controller	5852MiB	nullMHz	elementaryOSFreya	64-bit
139.91.70.30	Intel(R) Core(TM) i7-4790 CPU @ 3.60GHz			nullMHz		64-bit
139.91.70.99	Intel(R) Core(TM) i5 CPU       M 520  @ 2.40GHz	        Core Processor Integrated Graphics Controller	2871MiB	nullMHz	LinuxMint17.1Rebecca	64-bit
139.91.70.66	Intel(R) Core(TM) i7-4870HQ CPU @ 2.50GHz	       Intel Iris Pro        NVIDIA GeForce GT 750M 	16384MiB	1600MHz	OSX10.10.4(14E46)	64-bit
139.91.70.114	Intel(R) Core(TM) i7-4770 CPU @ 3.40GHz  	Intel(R) HD Graphics 4600  	8192MiB	1600MHz	Microsoft Windows 7 Enterprise  	64-bit
139.91.70.111	Intel(R) Core(TM) i5-4300U CPU @ 1.90GHz	        Haswell-ULT Integrated Graphics Controller	3859MiB	nullMHz	LinuxMint17Qiana	64-bit
139.91.70.45	Intel(R) Core(TM) i5-3337U CPU @ 1.80GHz  	Intel(R) HD Graphics 4000  AMD Radeon HD 7670M        	4096MiB	1600MHz	Microsoft Windows 7 Professional  	64-bit
139.91.70.118	Intel(R) Core(TM) i5-3210M CPU @ 2.50GHz  	Intel(R) HD Graphics 4000  	8192MiB	1600MHz	Microsoft Windows Embedded 8.1 Industry Pro  	64-bit
139.91.70.162	Intel(R) Core(TM) i7-4770 CPU @ 3.40GHz  	Intel(R) HD Graphics 4600  AMD Radeon HD 8490         	8192MiB	1600MHz	Microsoft Windows 8.1 Enterprise  	64-bit
